…
Your Turn 1
-----------

What kind of object is the `marital` variable?

``` r
gss_cat
```

    ## # A tibble: 21,483 x 9
    ##     year marital         age race   rincome        part… relig denom tvho…
    ##    <int> <fctr>        <int> <fctr> <fctr>         <fct> <fct> <fct> <int>
    ##  1  2000 Never married    26 White  $8000 to 9999  Ind,… Prot… Sout…    12
    ##  2  2000 Divorced         48 White  $8000 to 9999  Not … Prot… Bapt…    NA
    ##  3  2000 Widowed          67 White  Not applicable Inde… Prot… No d…     2
    ##  4  2000 Never married    39 White  Not applicable Ind,… Orth… Not …     4
    ##  5  2000 Divorced         25 White  Not applicable Not … None  Not …     1
    ##  6  2000 Married          25 White  $20000 - 24999 Stro… Prot… Sout…    NA
    ##  7  2000 Never married    36 White  $25000 or more Not … Chri… Not …     3
    ##  8  2000 Divorced         44 White  $7000 to 7999  Ind,… Prot… Luth…    NA
    ##  9  2000 Married          44 White  $25000 or more Not … Prot… Other     0
    ## 10  2000 Married          47 White  $25000 or more Stro… Prot… Sout…     3
    ## # ... with 21,473 more rows
…
